module crud_echo

go 1.15

require (
	github.com/dgrijalva/jwt-go v3.2.0+incompatible
	github.com/go-redis/redis v6.15.9+incompatible
	github.com/jinzhu/gorm v1.9.16
	github.com/joho/godotenv v1.4.0 // indirect
	github.com/labstack/echo v3.3.10+incompatible
	github.com/labstack/gommon v0.3.0 // indirect
	github.com/lib/pq v1.3.0
	golang.org/x/crypto v0.0.0-20210921155107-089bfa567519 // indirect
	gorm.io/datatypes v1.0.2
	gorm.io/plugin/soft_delete v1.0.3
)
